{
  "data": {
    "branches": [
      {
        "_id": "1",
        "name": "Branch 1",
        "country": "US",
        "zip_code": "12345",
        "state": "NY",
        "is_primary": true,
        "address_line_1": "123 Street",
        "city": "New York",
        "timezone": "EST"
      },
      {
        "_id": "2",
        "name": "Branch 2",
        "country": "US",
        "zip_code": "23456",
        "state": "CA",
        "is_primary": false,
        "address_line_1": "234 Ave",
        "city": "Los Angeles",
        "timezone": "PST"
      },
      {
        "_id": "3",
        "name": "Branch 3",
        "country": "US",
        "zip_code": "23456",
        "state": "CA",
        "is_primary": false,
        "address_line_1": "236 Ave",
        "city": "Los Angeles",
        "timezone": "PST"
      },
      {
        "_id": "4",
        "name": "Branch 4",
        "country": "US",
        "zip_code": "23456",
        "state": "CA",
        "is_primary": false,
        "address_line_1": "234 Ave",
        "city": "Los Angeles",
        "timezone": "PST"
      },
      {
        "_id": "5",
        "name": "Branch 5",
        "country": "US",
        "zip_code": "23456",
        "state": "CA",
        "is_primary": false,
        "address_line_1": "235 Ave",
        "city": "Los Angeles",
        "timezone": "PST"
      },
      {
        "_id": "6",
        "name": "Branch 6",
        "country": "US",
        "zip_code": "23466",
        "state": "CA",
        "is_primary": false,
        "address_line_1": "236 Ave",
        "city": "Los Angeles",
        "timezone": "PST"
      },
      {
        "_id": "7",
        "name": "Branch 7",
        "country": "US",
        "zip_code": "23476",
        "state": "CA",
        "is_primary": false,
        "address_line_1": "237 Ave",
        "city": "Los Angeles",
        "timezone": "PST"
      },
      {
        "_id": "8",
        "name": "Branch 8",
        "country": "US",
        "zip_code": "23486",
        "state": "CA",
        "is_primary": false,
        "address_line_1": "238 Ave",
        "city": "Los Angeles",
        "timezone": "PST"
      },
      {
        "_id": "9",
        "name": "Branch 9",
        "country": "US",
        "zip_code": "23496",
        "state": "CA",
        "is_primary": false,
        "address_line_1": "239 Ave",
        "city": "Los Angeles",
        "timezone": "PST"
      },
      {
        "_id": "10",
        "name": "Branch 10",
        "country": "US",
        "zip_code": "234106",
        "state": "CA",
        "is_primary": false,
        "address_line_1": "2310 Ave",
        "city": "Los Angeles",
        "timezone": "PST"
      }
    ],
    "page": 1,
    "total_pages": 3,
    "total_count": 30,
    "page_limit": 10
  }
}
